<?xml version="1.0" encoding="UTF-8" standalone="no"?>
<!-- Created with Inkscape (http://www.inkscape.org/) -->

<svg
   xmlns:dc="http://purl.org/dc/elements/1.1/"
   xmlns:cc="http://creativecommons.org/ns#"
   xmlns:rdf="http://www.w3.org/1999/02/22-rdf-syntax-ns#"
   xmlns:svg="http://www.w3.org/2000/svg"
   xmlns="http://www.w3.org/2000/svg"
   xmlns:xlink="http://www.w3.org/1999/xlink"
   xmlns:sodipodi="http://sodipodi.sourceforge.net/DTD/sodipodi-0.dtd"
   xmlns:inkscape="http://www.inkscape.org/namespaces/inkscape"
   width="191.34305mm"
   height="118.78312mm"
   viewBox="0 0 191.34304 118.78312"
   version="1.1"
   id="svg8"
   inkscape:version="0.92.3 (2405546, 2018-03-11)"
   sodipodi:docname="pval.svg"
   inkscape:export-filename="/home/suman/STAT_WORK/stat-workshop-2021/figs/pval.png"
   inkscape:export-xdpi="300"
   inkscape:export-ydpi="300">
  <defs
     id="defs2">
    <marker
       inkscape:stockid="Arrow1Lend"
       orient="auto"
       refY="0"
       refX="0"
       id="Arrow1Lend"
       style="overflow:visible"
       inkscape:isstock="true">
      <path
         id="path4679"
         d="M 0,0 5,-5 -12.5,0 5,5 Z"
         style="fill:#ffffff;fill-opacity:1;fill-rule:evenodd;stroke:#000000;stroke-width:1.00000003pt;stroke-opacity:1"
         transform="matrix(-0.8,0,0,-0.8,-10,0)"
         inkscape:connector-curvature="0" />
    </marker>
    <linearGradient
       inkscape:collect="always"
       id="linearGradient4542">
      <stop
         style="stop-color:#250000;stop-opacity:1;"
         offset="0"
         id="stop4538" />
      <stop
         style="stop-color:#250000;stop-opacity:0;"
         offset="1"
         id="stop4540" />
    </linearGradient>
    <radialGradient
       inkscape:collect="always"
       xlink:href="#linearGradient4542"
       id="radialGradient4544"
       cx="-154.59225"
       cy="87.979164"
       fx="-154.59225"
       fy="87.979164"
       r="90.336304"
       gradientTransform="matrix(0.37150121,0.00274151,-0.00191198,0.21520124,184.13276,125.85394)"
       gradientUnits="userSpaceOnUse" />
    <radialGradient
       inkscape:collect="always"
       xlink:href="#linearGradient4542"
       id="radialGradient4544-3"
       cx="-154.59225"
       cy="87.979164"
       fx="-154.59225"
       fy="87.979164"
       r="90.336304"
       gradientTransform="matrix(0.56213998,0.00394657,-0.00289312,0.30979521,213.47667,179.6732)"
       gradientUnits="userSpaceOnUse" />
    <marker
       inkscape:stockid="Arrow1Lend"
       orient="auto"
       refY="0"
       refX="0"
       id="Arrow1Lend-0"
       style="overflow:visible"
       inkscape:isstock="true">
      <path
         inkscape:connector-curvature="0"
         id="path4679-9"
         d="M 0,0 5,-5 -12.5,0 5,5 Z"
         style="fill:#ffffff;fill-opacity:1;fill-rule:evenodd;stroke:#000000;stroke-width:1.00000003pt;stroke-opacity:1"
         transform="matrix(-0.8,0,0,-0.8,-10,0)" />
    </marker>
  </defs>
  <sodipodi:namedview
     id="base"
     pagecolor="#ffffff"
     bordercolor="#666666"
     borderopacity="1.0"
     inkscape:pageopacity="0.0"
     inkscape:pageshadow="2"
     inkscape:zoom="0.7"
     inkscape:cx="132.18628"
     inkscape:cy="210.32643"
     inkscape:document-units="mm"
     inkscape:current-layer="layer1"
     showgrid="false"
     fit-margin-top="0"
     fit-margin-left="0"
     fit-margin-right="0"
     fit-margin-bottom="0"
     inkscape:window-width="1366"
     inkscape:window-height="714"
     inkscape:window-x="0"
     inkscape:window-y="25"
     inkscape:window-maximized="1" />
  <metadata
     id="metadata5">
    <rdf:RDF>
      <cc:Work
         rdf:about="">
        <dc:format>image/svg+xml</dc:format>
        <dc:type
           rdf:resource="http://purl.org/dc/dcmitype/StillImage" />
        <dc:title />
      </cc:Work>
    </rdf:RDF>
  </metadata>
  <g
     inkscape:label="Layer 1"
     inkscape:groupmode="layer"
     id="layer1"
     transform="translate(15.886491,-120.00854)">
    <ellipse
       style="opacity:1;fill:url(#radialGradient4544);fill-opacity:1;stroke:none;stroke-width:0.09094002;stroke-miterlimit:4;stroke-dasharray:none;stroke-dashoffset:0;stroke-opacity:1"
       id="path4536"
       cx="126.53329"
       cy="144.36336"
       rx="32.47308"
       ry="19.441122" />
    <path
       style="fill:none;stroke:#000000;stroke-width:0.14954709px;stroke-linecap:butt;stroke-linejoin:miter;stroke-opacity:1"
       d="M 126.7042,120.00854 V 238.79166"
       id="path4546"
       inkscape:connector-curvature="0" />
    <ellipse
       style="opacity:1;fill:url(#radialGradient4544-3);fill-opacity:1;stroke:none;stroke-width:0.13421842;stroke-miterlimit:4;stroke-dasharray:none;stroke-dashoffset:0;stroke-opacity:1"
       id="path4536-5"
       cx="126.31966"
       cy="206.31856"
       rx="49.136898"
       ry="27.98667" />
    <rect
       style="opacity:1;fill:#250000;fill-opacity:1;stroke:none;stroke-width:0.1497826;stroke-miterlimit:4;stroke-dasharray:none;stroke-dashoffset:0;stroke-opacity:1"
       id="rect4587"
       width="4.2727737"
       height="14.954708"
       x="144.22258"
       y="136.58691" />
    <rect
       style="opacity:1;fill:#250000;fill-opacity:1;stroke:none;stroke-width:0.1497826;stroke-miterlimit:4;stroke-dasharray:none;stroke-dashoffset:0;stroke-opacity:1"
       id="rect4587-5"
       width="4.2727737"
       height="14.95471"
       x="143.9662"
       y="198.02942" />
    <path
       style="fill:#000000;stroke:#000000;stroke-width:0.56521738;stroke-linecap:butt;stroke-linejoin:miter;stroke-miterlimit:4;stroke-dasharray:none;stroke-opacity:1"
       d="m 146.35896,143.72244 h 12.39105"
       id="path4604"
       inkscape:connector-curvature="0" />
    <path
       style="fill:#000000;stroke:#000000;stroke-width:0.84293938;stroke-linecap:butt;stroke-linejoin:miter;stroke-miterlimit:4;stroke-dasharray:none;stroke-opacity:1"
       d="m 147.85443,205.7204 h 27.55939"
       id="path4604-6"
       inkscape:connector-curvature="0" />
    <text
       xml:space="preserve"
       style="font-style:normal;font-weight:normal;font-size:3.2188704px;line-height:1.25;font-family:sans-serif;letter-spacing:0px;word-spacing:0px;fill:#000000;fill-opacity:1;stroke:none;stroke-width:0.21946841"
       x="149.34225"
       y="141.76701"
       id="text4623"><tspan
         sodipodi:role="line"
         id="tspan4621"
         x="149.34225"
         y="141.76701"
         style="stroke-width:0.21946841">p value</tspan></text>
    <text
       xml:space="preserve"
       style="font-style:normal;font-weight:normal;font-size:3.2188704px;line-height:1.25;font-family:sans-serif;letter-spacing:0px;word-spacing:0px;fill:#000000;fill-opacity:1;stroke:none;stroke-width:0.21946841"
       x="155.79152"
       y="203.31836"
       id="text4623-2"><tspan
         sodipodi:role="line"
         id="tspan4621-9"
         x="155.79152"
         y="203.31836"
         style="stroke-width:0.21946841">p value</tspan></text>
    <text
       xml:space="preserve"
       style="font-style:normal;font-weight:normal;font-size:3.02600217px;line-height:1.25;font-family:sans-serif;letter-spacing:0px;word-spacing:0px;fill:#000000;fill-opacity:1;stroke:none;stroke-width:0.2063183"
       x="90.29776"
       y="156.39494"
       id="text4645"><tspan
         sodipodi:role="line"
         id="tspan4643"
         x="90.29776"
         y="156.39494"
         style="stroke-width:0.2063183">Null hypothesis with </tspan><tspan
         sodipodi:role="line"
         x="90.29776"
         y="160.17744"
         style="stroke-width:0.2063183"
         id="tspan4647">sampling/testing intention A </tspan></text>
    <text
       xml:space="preserve"
       style="font-style:normal;font-weight:normal;font-size:3.02600217px;line-height:1.25;font-family:sans-serif;letter-spacing:0px;word-spacing:0px;fill:#000000;fill-opacity:1;stroke:none;stroke-width:0.2063183"
       x="90.106102"
       y="184.62465"
       id="text4645-1"><tspan
         sodipodi:role="line"
         id="tspan4643-2"
         x="90.106102"
         y="184.62465"
         style="stroke-width:0.2063183">Null hypothesis with </tspan><tspan
         sodipodi:role="line"
         x="90.106102"
         y="188.40715"
         style="stroke-width:0.2063183"
         id="tspan4647-7">sampling/testing intention B</tspan></text>
    <text
       xml:space="preserve"
       style="font-style:normal;font-weight:normal;font-size:2.78392768px;line-height:1.25;font-family:sans-serif;letter-spacing:0px;word-spacing:0px;fill:#ffffff;fill-opacity:1;stroke:none;stroke-width:0.18981324"
       x="131.39963"
       y="134.77103"
       id="text4672"><tspan
         sodipodi:role="line"
         id="tspan4670"
         x="131.39963"
         y="134.77103"
         style="fill:#ffffff;stroke-width:0.18981324">Actual Outcome</tspan></text>
    <path
       style="fill:#ffffff;stroke:#000000;stroke-width:0.1497826;stroke-linecap:butt;stroke-linejoin:miter;stroke-miterlimit:4;stroke-dasharray:none;stroke-opacity:1;marker-end:url(#Arrow1Lend)"
       d="m 137.77069,136.1169 4.70005,6.6228"
       id="path4674"
       inkscape:connector-curvature="0" />
    <text
       xml:space="preserve"
       style="font-style:normal;font-weight:normal;font-size:2.78392768px;line-height:1.25;font-family:sans-serif;letter-spacing:0px;word-spacing:0px;fill:#ffffff;fill-opacity:1;stroke:none;stroke-width:0.18981324"
       x="131.84105"
       y="196.43689"
       id="text4672-3"><tspan
         sodipodi:role="line"
         id="tspan4670-6"
         x="131.84105"
         y="196.43689"
         style="fill:#ffffff;stroke-width:0.18981324">Actual Outcome</tspan></text>
    <path
       style="fill:#ffffff;stroke:#000000;stroke-width:0.1497826;stroke-linecap:butt;stroke-linejoin:miter;stroke-miterlimit:4;stroke-dasharray:none;stroke-opacity:1;marker-end:url(#Arrow1Lend-0)"
       d="m 138.21214,197.78264 4.70005,6.6228"
       id="path4674-0"
       inkscape:connector-curvature="0" />
    <flowRoot
       xml:space="preserve"
       id="flowRoot47"
       style="font-style:normal;font-weight:normal;font-size:14.66666698px;line-height:1.25;font-family:sans-serif;letter-spacing:0px;word-spacing:0px;fill:#000000;fill-opacity:1;stroke:none"
       transform="matrix(0.26458333,0,0,0.26458333,86.178597,116.83352)"><flowRegion
         id="flowRegion49"><rect
           id="rect51"
           width="354.28571"
           height="422.85715"
           x="-375.71429"
           y="37.515503" /></flowRegion><flowPara
         id="flowPara53">The null hypothesis generates a cloud of imaginary outcomes, most of which fall in the center of the cloud, but some of which fall beyond the actual outcome, marked by block. The <flowSpan
   style="font-style:italic"
   id="flowSpan63">p value</flowSpan> is the proportion of the cloud as or more extreme than the actual outcome.</flowPara><flowPara
         id="flowPara55" /><flowPara
         id="flowPara59"><flowSpan
   style="font-weight:bold"
   id="flowSpan65">Top panel:</flowSpan> With sampling intention A, the cloud of imaginary possibilities has a small proportion that exceeds the actual outcome, hence the <flowSpan
   style="font-style:italic"
   id="flowSpan67">p value is small.</flowSpan></flowPara><flowPara
         id="flowPara61"
         style="font-style:italic" /><flowPara
         id="flowPara57"><flowSpan
   style="font-weight:bold"
   id="flowSpan69">Bottom panel:</flowSpan> With sampling intention B, the cloud of imaginary possibilities has a large proportion that exceeds the actual outcome, hence the <flowSpan
   style="font-style:italic"
   id="flowSpan71">p value is large.</flowSpan></flowPara><flowPara
         id="flowPara73" /><flowPara
         id="flowPara75">So, for the same actual outcome, based on experimenter's <flowSpan
   style="font-weight:bold"
   id="flowSpan77">choice of sampling and testing,</flowSpan> we get different p values and we reject null hypothesis in A but do not do so in B</flowPara></flowRoot>  </g>
</svg>
